# Lines starting with a # character are comments to be ignored
# You may have comment lines anywhere in the file\
#
# Other lines in the file are identified by specific KEYWORDS, followed by data
# KEYWORDS may include Capital letters, but capitalization will be ignored
# blank lines are also allowed and should be ignored

# each line stands alone, and there is no required ORDER to the file

title, 'A Fictitious Small Office Building
#                in. wg
fan_pressure, 0.67
#                lbm/cubic foot
air_density, 0.075
#                feet
roughness,    0.0003
#            up, nearest, none
rounding,     nearest

# duct fitting entries are a Id number, followed by a fitting type, 
# followed by data

#          ID     Fitting Type    Fan-side-ID     Flow or Length (CFM or feet)        

fitting,   beginning,  Air_Handling_Unit
fitting,   3,  Duct                 , beginning             , 100
fitting,   4,  Tee                  , 3             
fitting,   5,  Duct                 , 4-main        , 100
fitting,   6,  Tee                  , 5  
fitting,   7,  Duct                 , 6-main        , 150
fitting,   8,  Elbow                , 7
fitting,  12,  Duct                 , 8-branch      , 100
fitting,  13,  Diffuser             , 12            , 100
fitting,  14,  Duct                 , 6-branch      , 100
fitting,  16,  Diffuser             , 14            , 100
fitting,  17,  Duct                 , 4-branch      , 100
fitting,  18,  Tee                  , 17            
fitting,  19,  Duct                 , 18-main       , 100
fitting,  20,  Diffuser             , 19            , 100        
fitting,  22,  Elbow                , 21            
fitting,  21,  Duct                 , 18-branch     , 100
fitting,  23,  Duct                 , 22            , 100
fitting,  24,  Diffuser             , 23            , 100

